{
  "project_info": {
    "project_number": "231522582643",
    "firebase_url": "https://pongo-health.firebaseio.com",
    "project_id": "pongo-health",
    "storage_bucket": "pongo-health.appspot.com"
  },
  "client": [
    {
      "client_info": {
        "mobilesdk_app_id": "1:231522582643:android:7e13ac42148817fcaf2a06",
        "android_client_info": {
          "package_name": "com.pongo.health"
        }
      },
      "oauth_client": [
        {
          "client_id": "231522582643-cavi8mc9imna2ntor1ovn4oiqboql5bt.apps.googleusercontent.com",
          "client_type": 1,
          "android_info": {
            "package_name": "com.pongo.health",
            "certificate_hash": "169f62e2a5f0be974119b00c4998c88af57c7316"
          }
        },
        {
          "client_id": "231522582643-5rr7fe3ajc8rt67rh8hsch75lirb5cps.apps.googleusercontent.com",
          "client_type": 3
        }
      ],
      "api_key": [
        {
          "current_key": "AIzaSyAno5cTQxcq4Fl5m5Lz1V3D7St96psjHu0"
        }
      ],
      "services": {
        "appinvite_service": {
          "other_platform_oauth_client": [
            {
              "client_id": "231522582643-5rr7fe3ajc8rt67rh8hsch75lirb5cps.apps.googleusercontent.com",
              "client_type": 3
            },
            {
              "client_id": "231522582643-b3sjv82clnc1bpp56q0kucfh7avnkbj8.apps.googleusercontent.com",
              "client_type": 2,
              "ios_info": {
                "bundle_id": "com.pongo.health"
              }
            }
          ]
        }
      }
    }
  ],
  "configuration_version": "1"
}